[0726/211232:ERROR:process_info.cc(608)] range at 0xfffde000, size 0x230 fully unreadable
[0726/211232:ERROR:process_reader_win.cc(113)] NtOpenThread: {Access Denied} A process has requested access to an object, but has not been granted those access rights.  (0xc0000022)
[0726/211232:ERROR:exception_snapshot_win.cc(57)] thread ID 7588 not found in process
[0726/211232:WARNING:crash_report_exception_handler.cc(60)] ProcessSnapshotWin::InitializeException failed
